{
  "name": "",
  "css_prefix_text": "icon-",
  "css_use_suffix": false,
  "hinting": true,
  "units_per_em": 1000,
  "ascent": 850,
  "glyphs": [
    {
      "uid": "ce1d525f3f31024c6a6b38f5e9a88953",
      "css": "facebook-circled",
      "code": 59392,
      "src": "entypo"
    },
    {
      "uid": "0419da6446cb4f31093e2022793571ca",
      "css": "twitter-circled",
      "code": 59393,
      "src": "entypo"
    },
    {
      "uid": "79689c4c425b7cdaa2746f510e81e27a",
      "css": "pinterest-squared",
      "code": 59394,
      "src": "fontawesome"
    },
    {
      "uid": "e3ed188ab8569b45cf41e74ce81aa86e",
      "css": "cc-visa",
      "code": 59395,
      "src": "fontawesome"
    },
    {
      "uid": "4b1bfce8593a2c1c7d60b9145ada2adf",
      "css": "cc-mastercard",
      "code": 59396,
      "src": "fontawesome"
    },
    {
      "uid": "b83f99fd47bff831e25255c9bbbbabe7",
      "css": "cc-paypal",
      "code": 59397,
      "src": "fontawesome"
    },
    {
      "uid": "531bc468eecbb8867d822f1c11f1e039",
      "css": "calendar",
      "code": 59398,
      "src": "fontawesome"
    },
    {
      "uid": "0a16125788558bcc5d70ae3f10effce5",
      "css": "instagram-circled",
      "code": 59399,
      "src": "mfglabs"
    },
    {
      "uid": "id8wp0cygl9trzbhlbd9o0fygiesi629",
      "css": "search",
      "code": 59400,
      "src": "modernpics"
    }
  ]
}